[gd_resource type="ShaderMaterial" load_steps=2 format=2]

[ext_resource path="res://Assets/FogShader/SHADER_Fog.gdshader" type="Shader" id=1]

[resource]
resource_local_to_scene = true
shader = ExtResource( 1 )
shader_param/scale = 1.0
shader_param/color = Color( 0, 0.282353, 0.407843, 0.372549 )
shader_param/speed = 0.01
shader_param/seed = 0.0
shader_param/offset = Vector2( 0, 0 )
