[gd_scene load_steps=2 format=2]

[ext_resource path="res://Assets/Collectables/Tanke.png" type="Texture" id=1]

[node name="GasStation" type="Node2D"]

[node name="Sprite" type="Sprite" parent="."]
texture = ExtResource( 1 )

[node name="StaticBody2D" type="StaticBody2D" parent="."]

[node name="CollisionPolygon2D" type="CollisionPolygon2D" parent="StaticBody2D"]
polygon = PoolVector2Array( -20.5, -59, -20.5, -57.5, -21.4, -38.5, -20.5, -38.5, -20.5, -31.3, -17.5, -28.3, -17.5, -9.5, 70.3, -9.5, 73.5, -6.3, 73.5, 4.5, 70.8, 4.5, 66.5, 5.9, 66.5, 13.5, 70.5, 16.5, 70.5, 29.1, 72.9, 41.5, 69.4, 41.5, 75.5, 48.8, 75.5, 57.5, 72.6, 57.5, 66.5, 59, 66.5, 62.3, 65.3, 63.5, 29.4, 63.5, 28.1, 59.5, 19.9, 59.5, 18.6, 63.5, -16.5, 63.5, -17.9, 59.5, -27.5, 59.5, -27.5, 63.4, -29.2, 63.5, -64.5, 63.5, -65.9, 59.5, -74.3, 59.5, -75.5, 58.3, -75.5, 1.5, -74.5, -22.5, -72.4, -22.5, -64.4, -31.5, -39.5, -31.5, -39.5, -37, -32.5, -39, -32.5, -58.5, -33.5, -62.3, -33.5, -63.5, -22.5, -63.5 )
