[gd_scene load_steps=4 format=2]

[sub_resource type="Curve" id=82]
_data = [ Vector2( 0, 0 ), 0.0, 0.0, 0, 0, Vector2( 0.137441, 1 ), 0.0, 0.0, 0, 0, Vector2( 0.829384, 1 ), 0.0, 0.0, 0, 0, Vector2( 1, 0 ), -5.30925, 0.0, 0, 0 ]

[sub_resource type="CurveTexture" id=83]
curve = SubResource( 82 )

[sub_resource type="ParticlesMaterial" id=84]
emission_shape = 1
emission_sphere_radius = 52.41
flag_disable_z = true
spread = 180.0
gravity = Vector3( 0, 5, 0 )
initial_velocity = 247.86
orbit_velocity = 0.0
orbit_velocity_random = 0.0
damping = 51.23
damping_random = 0.31
scale = 12.0
scale_random = 0.5
scale_curve = SubResource( 83 )
hue_variation = 1.0
hue_variation_random = 0.5

[node name="FireworkExplosion" type="Particles2D"]
scale = Vector2( 0.1, 0.1 )
emitting = false
amount = 15000
lifetime = 5.0
one_shot = true
speed_scale = 3.0
explosiveness = 0.76
randomness = 0.66
process_material = SubResource( 84 )
