[gd_scene load_steps=8 format=2]

[sub_resource type="Animation" id=6]
length = 0.001
tracks/0/type = "value"
tracks/0/path = NodePath("CharacterSprite:frame")
tracks/0/interp = 1
tracks/0/loop_wrap = true
tracks/0/imported = false
tracks/0/enabled = true
tracks/0/keys = {
"times": PoolRealArray( 0 ),
"transitions": PoolRealArray( 1 ),
"update": 0,
"values": [ 0 ]
}

[sub_resource type="Animation" id=18]
resource_name = "down"
length = 2.0
tracks/0/type = "value"
tracks/0/path = NodePath("CharacterSprite:frame")
tracks/0/interp = 1
tracks/0/loop_wrap = true
tracks/0/imported = false
tracks/0/enabled = true
tracks/0/keys = {
"times": PoolRealArray( 0, 1 ),
"transitions": PoolRealArray( 1, 1 ),
"update": 1,
"values": [ 18, 19 ]
}

[sub_resource type="Animation" id=13]
resource_name = "homeship"
length = 2.0
loop = true

[sub_resource type="Animation" id=19]
resource_name = "horizontal"
length = 3.2
loop = true
tracks/0/type = "value"
tracks/0/path = NodePath("CharacterSprite:frame")
tracks/0/interp = 1
tracks/0/loop_wrap = true
tracks/0/imported = false
tracks/0/enabled = true
tracks/0/keys = {
"times": PoolRealArray( 0, 0.4, 0.8, 1.2, 1.6, 2, 2.4, 2.8 ),
"transitions": PoolRealArray( 1, 1, 1, 1, 1, 1, 1, 1 ),
"update": 1,
"values": [ 8, 9, 10, 11, 12, 13, 14, 15 ]
}

[sub_resource type="Animation" id=7]
resource_name = "idle"
length = 3.2
loop = true
tracks/0/type = "value"
tracks/0/path = NodePath("CharacterSprite:frame")
tracks/0/interp = 1
tracks/0/loop_wrap = true
tracks/0/imported = false
tracks/0/enabled = true
tracks/0/keys = {
"times": PoolRealArray( 0, 0.4, 0.8, 1.2, 1.6, 2, 2.4, 2.8 ),
"transitions": PoolRealArray( 1, 1, 1, 1, 1, 1, 1, 1 ),
"update": 1,
"values": [ 0, 1, 2, 3, 4, 5, 6, 7 ]
}

[sub_resource type="Animation" id=20]
resource_name = "up"
length = 2.0
loop = true
tracks/0/type = "value"
tracks/0/path = NodePath("CharacterSprite:frame")
tracks/0/interp = 1
tracks/0/loop_wrap = true
tracks/0/imported = false
tracks/0/enabled = true
tracks/0/keys = {
"times": PoolRealArray( 0, 1 ),
"transitions": PoolRealArray( 1, 1 ),
"update": 1,
"values": [ 16, 17 ]
}

[sub_resource type="Animation" id=8]
resource_name = "walk"
length = 0.3
loop = true

[node name="AnimationPlayer" type="AnimationPlayer"]
playback_speed = 2.0
anims/RESET = SubResource( 6 )
anims/down = SubResource( 18 )
anims/homeship = SubResource( 13 )
anims/horizontal = SubResource( 19 )
anims/idle = SubResource( 7 )
anims/up = SubResource( 20 )
anims/walk = SubResource( 8 )
