[gd_scene load_steps=9 format=2]

[sub_resource type="Gradient" id=1]
offsets = PoolRealArray( 0, 0.117021, 0.414894, 0.765957, 1 )
colors = PoolColorArray( 1, 0.96283, 0.835938, 1, 1, 0.773438, 0, 1, 1, 0.372742, 0.0664063, 1, 0.832031, 0.224258, 0.224258, 1, 0.843137, 0.184314, 0.184314, 0 )

[sub_resource type="GradientTexture" id=2]
gradient = SubResource( 1 )

[sub_resource type="Curve" id=3]
max_value = 100.0
_data = [ Vector2( 0, 1 ), 0.0, 0.0, 0, 0, Vector2( 0.170616, 100 ), 0.0, 0.0, 0, 0 ]

[sub_resource type="CurveTexture" id=4]
curve = SubResource( 3 )

[sub_resource type="Curve" id=5]
_data = [ Vector2( 0, 0.268182 ), 0.0, 0.0, 0, 0, Vector2( 0.232228, 1 ), 0.0, 0.0, 0, 0, Vector2( 1, 0 ), -2.70289, 0.0, 0, 0 ]

[sub_resource type="CurveTexture" id=6]
curve = SubResource( 5 )

[sub_resource type="ParticlesMaterial" id=7]
emission_shape = 1
emission_sphere_radius = 2.0
flag_disable_z = true
spread = 180.0
gravity = Vector3( 0, 0, 0 )
initial_velocity = 50.0
orbit_velocity = 0.0
orbit_velocity_random = 0.0
damping_curve = SubResource( 4 )
scale = 2.0
scale_curve = SubResource( 6 )
color_ramp = SubResource( 2 )
hue_variation = 0.07
hue_variation_random = 1.0

[sub_resource type="GDScript" id=8]
script/source = "extends Particles2D

var timeTillDestruction = 5.0
var timer = 0.0

func _process(delta):
	timer += delta
	if(timer >= timeTillDestruction):
		timer = 0.0
		queue_free()
"

[node name="ExplosionParticles" type="Particles2D"]
emitting = false
amount = 700
lifetime = 3.0
one_shot = true
speed_scale = 8.0
explosiveness = 0.68
randomness = 1.0
process_material = SubResource( 7 )
script = SubResource( 8 )
